# Tracking
#
# Domains in this file provide some kind of cross-domain tracking.
# Some 'legit', some not...

avatars.githubusercontent.com
connectivitycheck.gstatic.com
events.app-performance.music.amazon.dev
exitintel.com
gamemode.net
get.exitintel.com
ingesteer.services-prod.nsvcs.net
js-agent.newrelic.com
links.duckduckgo.com
safebrowsing.googleapis.com
service.game-mode.net
session.app-performance.music.amazon.dev
trace.app-performance.music.amazon.dev
userlocation.googleapis.com
www.exitintel.com
